{
    "pages":{
        "prev":"",
        "next":"/product_feed/threads/v2?filter=marketplace%28CN%29&filter=language%28zh-Hans%29&filter=channelId%28010794e5-35fe-4e32-aaff-cd2c74f89d61%29&filter=exclusiveAccess%28true%2Cfalse%29&anchor=1&count=1&fields=active&fields=id&fields=lastFetchTime&fields=productInfo&fields=publishedContent.nodes&fields=publishedContent.properties.coverCard&fields=publishedContent.properties.productCard&fields=publishedContent.properties.products&fields=publishedContent.properties.publish.collections&fields=publishedContent.properties.relatedThreads&fields=publishedContent.properties.seo&fields=publishedContent.properties.threadType&fields=publishedContent.properties.custom",
        "totalPages":637,
        "totalResources":637
    },
    "objects":[
        {
            "id":"22b1398c-ab13-4fed-9876-9f079ded5380",
            "lastFetchTime":"2018-08-06T17:52:06.626Z",
            "publishedContent":{
                "nodes":[
                    {
                        "nodes":[
                            {
                                "subType":"image",
                                "id":"c4b81086-667b-44c6-a809-1e7a8d7f7801",
                                "type":"card",
                                "version":"1533537511216",
                                "properties":{
                                    "portraitId":"aqk1uss8jery0qvnyaxm",
                                    "squarishURL":"https://c.static-nike.com/a/images/t_prod_ss/w_960,c_limit/aqk1uss8jery0qvnyaxm/womens-air-max-90-1-white-university-red-release-date.jpg",
                                    "product":[

                                    ],
                                    "landscapeId":"aqk1uss8jery0qvnyaxm",
                                    "altText":"Women's Air Max 90 / 1 'White & University Red' Release Date",
                                    "portraitURL":"https://c.static-nike.com/a/images/t_prod_ps/w_1536,c_limit/aqk1uss8jery0qvnyaxm/womens-air-max-90-1-white-university-red-release-date.jpg",
                                    "landscapeURL":"https://c.static-nike.com/a/images/t_prod_ls/w_1920,c_limit/aqk1uss8jery0qvnyaxm/womens-air-max-90-1-white-university-red-release-date.jpg",
                                    "portrait":{
                                        "aspectRatio":0.8,
                                        "id":"aqk1uss8jery0qvnyaxm",
                                        "type":"product",
                                        "url":"https://c.static-nike.com/a/images/t_prod_ps/w_1536,c_limit/aqk1uss8jery0qvnyaxm/womens-air-max-90-1-white-university-red-release-date.jpg"
                                    },
                                    "squarish":{
                                        "aspectRatio":0.8,
                                        "id":"aqk1uss8jery0qvnyaxm",
                                        "type":"product",
                                        "url":"https://c.static-nike.com/a/images/t_prod_ss/w_960,c_limit/aqk1uss8jery0qvnyaxm/womens-air-max-90-1-white-university-red-release-date.jpg"
                                    },
                                    "title":"",
                                    "squarishId":"aqk1uss8jery0qvnyaxm",
                                    "subtitle":"",
                                    "colorTheme":"dark",
                                    "actions":[

                                    ],
                                    "landscape":{
                                        "aspectRatio":0.8,
                                        "id":"aqk1uss8jery0qvnyaxm",
                                        "type":"product",
                                        "url":"https://c.static-nike.com/a/images/t_prod_ls/w_1920,c_limit/aqk1uss8jery0qvnyaxm/womens-air-max-90-1-white-university-red-release-date.jpg"
                                    }
                                }
                            },
                            {
                                "subType":"image",
                                "id":"d047c16e-c903-4082-bd28-bc0cf1af9ea6",
                                "type":"card",
                                "version":"1533537511216",
                                "properties":{
                                    "portraitId":"zzduda5coye3kxpc9gcu",
                                    "squarishURL":"https://c.static-nike.com/a/images/t_prod_ss/w_960,c_limit/zzduda5coye3kxpc9gcu/womens-air-max-90-1-white-university-red-release-date.jpg",
                                    "product":[

                                    ],
                                    "landscapeId":"zzduda5coye3kxpc9gcu",
                                    "altText":"Women's Air Max 90 / 1 'White & University Red' Release Date",
                                    "portraitURL":"https://c.static-nike.com/a/images/t_prod_ps/w_1536,c_limit/zzduda5coye3kxpc9gcu/womens-air-max-90-1-white-university-red-release-date.jpg",
                                    "landscapeURL":"https://c.static-nike.com/a/images/t_prod_ls/w_1920,c_limit/zzduda5coye3kxpc9gcu/womens-air-max-90-1-white-university-red-release-date.jpg",
                                    "portrait":{
                                        "aspectRatio":0.8,
                                        "id":"zzduda5coye3kxpc9gcu",
                                        "type":"product",
                                        "url":"https://c.static-nike.com/a/images/t_prod_ps/w_1536,c_limit/zzduda5coye3kxpc9gcu/womens-air-max-90-1-white-university-red-release-date.jpg"
                                    },
                                    "squarish":{
                                        "aspectRatio":0.8,
                                        "id":"zzduda5coye3kxpc9gcu",
                                        "type":"product",
                                        "url":"https://c.static-nike.com/a/images/t_prod_ss/w_960,c_limit/zzduda5coye3kxpc9gcu/womens-air-max-90-1-white-university-red-release-date.jpg"
                                    },
                                    "title":"",
                                    "squarishId":"zzduda5coye3kxpc9gcu",
                                    "subtitle":"",
                                    "colorTheme":"dark",
                                    "actions":[

                                    ],
                                    "landscape":{
                                        "aspectRatio":0.8,
                                        "id":"zzduda5coye3kxpc9gcu",
                                        "type":"product",
                                        "url":"https://c.static-nike.com/a/images/t_prod_ls/w_1920,c_limit/zzduda5coye3kxpc9gcu/womens-air-max-90-1-white-university-red-release-date.jpg"
                                    }
                                }
                            },
                            {
                                "subType":"image",
                                "id":"e5121f8f-c695-47f5-b7d0-f61a314e1e62",
                                "type":"card",
                                "version":"1533537511215",
                                "properties":{
                                    "portraitId":"hq6rlcog9o42w4tn8cxa",
                                    "squarishURL":"https://c.static-nike.com/a/images/t_prod_ss/w_960,c_limit/hq6rlcog9o42w4tn8cxa/womens-air-max-90-1-white-university-red-release-date.jpg",
                                    "product":[

                                    ],
                                    "landscapeId":"hq6rlcog9o42w4tn8cxa",
                                    "altText":"Women's Air Max 90 / 1 'White & University Red' Release Date",
                                    "portraitURL":"https://c.static-nike.com/a/images/t_prod_ps/w_1536,c_limit/hq6rlcog9o42w4tn8cxa/womens-air-max-90-1-white-university-red-release-date.jpg",
                                    "landscapeURL":"https://c.static-nike.com/a/images/t_prod_ls/w_1920,c_limit/hq6rlcog9o42w4tn8cxa/womens-air-max-90-1-white-university-red-release-date.jpg",
                                    "portrait":{
                                        "aspectRatio":0.8,
                                        "id":"hq6rlcog9o42w4tn8cxa",
                                        "type":"product",
                                        "url":"https://c.static-nike.com/a/images/t_prod_ps/w_1536,c_limit/hq6rlcog9o42w4tn8cxa/womens-air-max-90-1-white-university-red-release-date.jpg"
                                    },
                                    "squarish":{
                                        "aspectRatio":0.8,
                                        "id":"hq6rlcog9o42w4tn8cxa",
                                        "type":"product",
                                        "url":"https://c.static-nike.com/a/images/t_prod_ss/w_960,c_limit/hq6rlcog9o42w4tn8cxa/womens-air-max-90-1-white-university-red-release-date.jpg"
                                    },
                                    "title":"",
                                    "squarishId":"hq6rlcog9o42w4tn8cxa",
                                    "subtitle":"",
                                    "colorTheme":"dark",
                                    "actions":[

                                    ],
                                    "landscape":{
                                        "aspectRatio":0.8,
                                        "id":"hq6rlcog9o42w4tn8cxa",
                                        "type":"product",
                                        "url":"https://c.static-nike.com/a/images/t_prod_ls/w_1920,c_limit/hq6rlcog9o42w4tn8cxa/womens-air-max-90-1-white-university-red-release-date.jpg"
                                    }
                                }
                            },
                            {
                                "subType":"image",
                                "id":"b457557f-d939-4f50-a1b2-70ce065e450c",
                                "type":"card",
                                "version":"1533537512559",
                                "properties":{
                                    "portraitId":"tgiu6vixopy6xlnbyz7i",
                                    "squarishURL":"https://c.static-nike.com/a/images/t_prod_sc/w_960,c_limit/tgiu6vixopy6xlnbyz7i/womens-air-max-90-1-white-university-red-release-date.jpg",
                                    "product":[

                                    ],
                                    "landscapeId":"tgiu6vixopy6xlnbyz7i",
                                    "altText":"Women's Air Max 90 / 1 'White & University Red' Release Date",
                                    "portraitURL":"https://c.static-nike.com/a/images/t_prod_pc/w_1536,c_limit/tgiu6vixopy6xlnbyz7i/womens-air-max-90-1-white-university-red-release-date.jpg",
                                    "landscapeURL":"https://c.static-nike.com/a/images/t_prod_lc/w_1920,c_limit/tgiu6vixopy6xlnbyz7i/womens-air-max-90-1-white-university-red-release-date.jpg",
                                    "portrait":{
                                        "aspectRatio":0.8,
                                        "id":"tgiu6vixopy6xlnbyz7i",
                                        "type":"product",
                                        "url":"https://c.static-nike.com/a/images/t_prod_pc/w_1536,c_limit/tgiu6vixopy6xlnbyz7i/womens-air-max-90-1-white-university-red-release-date.jpg"
                                    },
                                    "squarish":{
                                        "aspectRatio":0.8,
                                        "id":"tgiu6vixopy6xlnbyz7i",
                                        "type":"product",
                                        "url":"https://c.static-nike.com/a/images/t_prod_sc/w_960,c_limit/tgiu6vixopy6xlnbyz7i/womens-air-max-90-1-white-university-red-release-date.jpg"
                                    },
                                    "title":"",
                                    "squarishId":"tgiu6vixopy6xlnbyz7i",
                                    "subtitle":"",
                                    "colorTheme":"dark",
                                    "actions":[

                                    ],
                                    "landscape":{
                                        "aspectRatio":0.8,
                                        "id":"tgiu6vixopy6xlnbyz7i",
                                        "type":"product",
                                        "url":"https://c.static-nike.com/a/images/t_prod_lc/w_1920,c_limit/tgiu6vixopy6xlnbyz7i/womens-air-max-90-1-white-university-red-release-date.jpg"
                                    }
                                }
                            },
                            {
                                "subType":"image",
                                "id":"8c902090-554e-4666-8dd4-abc31a59b820",
                                "type":"card",
                                "version":"1533537512561",
                                "properties":{
                                    "portraitId":"pxaglsykflp2pneohqcc",
                                    "squarishURL":"https://c.static-nike.com/a/images/t_prod_ss/w_960,c_limit/pxaglsykflp2pneohqcc/womens-air-max-90-1-white-university-red-release-date.jpg",
                                    "product":[

                                    ],
                                    "landscapeId":"pxaglsykflp2pneohqcc",
                                    "altText":"Women's Air Max 90 / 1 'White & University Red' Release Date",
                                    "portraitURL":"https://c.static-nike.com/a/images/t_prod_ps/w_1536,c_limit/pxaglsykflp2pneohqcc/womens-air-max-90-1-white-university-red-release-date.jpg",
                                    "landscapeURL":"https://c.static-nike.com/a/images/t_prod_ls/w_1920,c_limit/pxaglsykflp2pneohqcc/womens-air-max-90-1-white-university-red-release-date.jpg",
                                    "portrait":{
                                        "aspectRatio":0.8,
                                        "id":"pxaglsykflp2pneohqcc",
                                        "type":"product",
                                        "url":"https://c.static-nike.com/a/images/t_prod_ps/w_1536,c_limit/pxaglsykflp2pneohqcc/womens-air-max-90-1-white-university-red-release-date.jpg"
                                    },
                                    "squarish":{
                                        "aspectRatio":0.8,
                                        "id":"pxaglsykflp2pneohqcc",
                                        "type":"product",
                                        "url":"https://c.static-nike.com/a/images/t_prod_ss/w_960,c_limit/pxaglsykflp2pneohqcc/womens-air-max-90-1-white-university-red-release-date.jpg"
                                    },
                                    "title":"",
                                    "squarishId":"pxaglsykflp2pneohqcc",
                                    "subtitle":"",
                                    "colorTheme":"dark",
                                    "actions":[

                                    ],
                                    "landscape":{
                                        "aspectRatio":0.8,
                                        "id":"pxaglsykflp2pneohqcc",
                                        "type":"product",
                                        "url":"https://c.static-nike.com/a/images/t_prod_ls/w_1920,c_limit/pxaglsykflp2pneohqcc/womens-air-max-90-1-white-university-red-release-date.jpg"
                                    }
                                }
                            },
                            {
                                "subType":"image",
                                "id":"18cd7d99-5f01-46d2-9936-300feb2e0df3",
                                "type":"card",
                                "version":"1533537511246",
                                "properties":{
                                    "portraitId":"edk81alr4ivrdoahrgz7",
                                    "squarishURL":"https://c.static-nike.com/a/images/t_prod_ss/w_960,c_limit/edk81alr4ivrdoahrgz7/womens-air-max-90-1-white-university-red-release-date.jpg",
                                    "product":[

                                    ],
                                    "landscapeId":"edk81alr4ivrdoahrgz7",
                                    "altText":"Women's Air Max 90 / 1 'White & University Red' Release Date",
                                    "portraitURL":"https://c.static-nike.com/a/images/t_prod_ps/w_1536,c_limit/edk81alr4ivrdoahrgz7/womens-air-max-90-1-white-university-red-release-date.jpg",
                                    "landscapeURL":"https://c.static-nike.com/a/images/t_prod_ls/w_1920,c_limit/edk81alr4ivrdoahrgz7/womens-air-max-90-1-white-university-red-release-date.jpg",
                                    "portrait":{
                                        "aspectRatio":0.8,
                                        "id":"edk81alr4ivrdoahrgz7",
                                        "type":"product",
                                        "url":"https://c.static-nike.com/a/images/t_prod_ps/w_1536,c_limit/edk81alr4ivrdoahrgz7/womens-air-max-90-1-white-university-red-release-date.jpg"
                                    },
                                    "squarish":{
                                        "aspectRatio":0.8,
                                        "id":"edk81alr4ivrdoahrgz7",
                                        "type":"product",
                                        "url":"https://c.static-nike.com/a/images/t_prod_ss/w_960,c_limit/edk81alr4ivrdoahrgz7/womens-air-max-90-1-white-university-red-release-date.jpg"
                                    },
                                    "title":"",
                                    "squarishId":"edk81alr4ivrdoahrgz7",
                                    "subtitle":"",
                                    "colorTheme":"dark",
                                    "actions":[

                                    ],
                                    "landscape":{
                                        "aspectRatio":0.8,
                                        "id":"edk81alr4ivrdoahrgz7",
                                        "type":"product",
                                        "url":"https://c.static-nike.com/a/images/t_prod_ls/w_1920,c_limit/edk81alr4ivrdoahrgz7/womens-air-max-90-1-white-university-red-release-date.jpg"
                                    }
                                }
                            }
                        ],
                        "subType":"carousel",
                        "id":"78fed23e-a448-48f7-8736-2076facdad41",
                        "type":"card",
                        "version":"1532942573893",
                        "properties":{
                            "product":[

                            ],
                            "containerType":"carousel",
                            "loop":true,
                            "subtitle":"女子运动鞋",
                            "colorTheme":"dark",
                            "autoPlay":false,
                            "body":"<p>1992 年，Nike 的复古/休闲混搭鞋款 Air Max 1 Retro 诞生。该鞋款将 Air Max 1 OG 的皮革鞋面与 Air Max 90 的科技相结合，展现休闲风格的同时，缔造出众舒适感。虽然受限于短暂的生产周期，最终仅发布了数千双，但该白色款优质皮革 Air Max 90/1 却让粉丝有机会体验到特有的混搭风尚。</p>
<p>一旦您提交订单即表明您同意下述条款</p>",
                            "title":"Nike Air Max 90/1",
                            "actions":[
                                {
                                    "actionType":"cta_buying_tools",
                                    "product":{
                                        "productId":"7f22a5e4-61bb-5f70-bee2-87cc8b3862ff",
                                        "styleColor":"AQ1273-100"
                                    },
                                    "destinationId":"AQ1273-100"
                                }
                            ],
                            "speed":6000
                        }
                    },
                    {
                        "subType":"text",
                        "id":"d381d9be-2506-44d9-860f-d9bc13e6d830",
                        "type":"card",
                        "version":"1532942573894",
                        "properties":{
                            "product":[

                            ],
                            "subtitle":"",
                            "body":"<p>1.此商品每人限购1件，且不适用于任何优惠券或折扣码等折扣活动。 2.此商品仅支持网上在线支付，且需在商品订单提交后10分钟内成功付款。超时订单将被取消。成功付款以本网站确认付款信息为准，您可以通过查询订单状态实时了解是否已成功付款。 3.耐克会主要通过SNKRS应用程序/网站提示的方式告知您是否已经获得购买资格。请您启用您设备及SNKRS 应用程序的通知功能；提交产品购买申请后保持您NIKEPLUS 账号处于登陆状态；确保设备的网络连接通畅。4.网上在线成功支付需要多方协同，例如：您的付款银行、支付及交易平台以及网络接入服务提供商等。自您进行支付后，各方系统需要一定时间进行数据交换直至本网站确认付款成功。 5.在此期间，一旦发生网络传输延迟或数据交换堵塞可能会影响您成功付款，因此建议您在订单提交后尽快进行付款，以避免因网络延迟未能成功付款而导致订单取消的情形出现。 6.耐克在某些情况下有权单方取消您的订单，如您已付款，耐克只需通过原付款平台向您退回您已支付款项，且无需承担其他责任。这些情况具体请见特别版产品订单取消规则。 7.由于不可抗力、传输延迟、耐克网站系统发生故障或遭受第三方攻击及其他耐克无法控制的情形，耐克有权暂时下架或延迟发售此商品。如您已下单购买此商品但因上述原因导致无法正常发货的，您有权取消订单，商城亦有权取消您的订单，并仅需为您办理退款。 8.如购买人数众多，您最终有可能因该产品迅速售罄而无法买到该产品。 9.为了保障您的个人信息与财产安全，请您在支付前确认配送信息正确，订单生成之后将无法为您更改配送地址。 </p>",
                            "title":"",
                            "actions":[

                            ]
                        }
                    },
                    {
                        "subType":"image",
                        "id":"64a8c491-7a8c-420d-a8b2-ef93e400547f",
                        "type":"card",
                        "version":"1533537512561",
                        "properties":{
                            "portraitId":"sf4ivl3thssuowkeljlt",
                            "squarishURL":"",
                            "product":[

                            ],
                            "landscapeId":"rw017udv1jnsvomzg6nt",
                            "altText":"Women's Air Max 90 / 1 'White & University Red' Release Date",
                            "portraitURL":"https://c.static-nike.com/a/images/w_1536,c_limit/sf4ivl3thssuowkeljlt/womens-air-max-90-1-white-university-red-release-date.jpg",
                            "landscapeURL":"https://c.static-nike.com/a/images/w_1920,c_limit/rw017udv1jnsvomzg6nt/womens-air-max-90-1-white-university-red-release-date.jpg",
                            "portrait":{
                                "aspectRatio":0.66667,
                                "id":"sf4ivl3thssuowkeljlt",
                                "type":"editorial",
                                "url":"https://c.static-nike.com/a/images/w_1536,c_limit/sf4ivl3thssuowkeljlt/womens-air-max-90-1-white-university-red-release-date.jpg"
                            },
                            "squarish":{
                                "id":"",
                                "url":""
                            },
                            "title":"",
                            "squarishId":"",
                            "subtitle":"",
                            "colorTheme":"dark",
                            "actions":[

                            ],
                            "landscape":{
                                "aspectRatio":1.88235,
                                "id":"rw017udv1jnsvomzg6nt",
                                "type":"editorial",
                                "url":"https://c.static-nike.com/a/images/w_1920,c_limit/rw017udv1jnsvomzg6nt/womens-air-max-90-1-white-university-red-release-date.jpg"
                            }
                        }
                    },
                    {
                        "subType":"image",
                        "id":"3b5bb95d-f5c0-4a48-aff1-c0999da343d0",
                        "type":"card",
                        "version":"1533537511251",
                        "properties":{
                            "portraitId":"j8ol13ejumdvpdooahzr",
                            "squarishURL":"",
                            "product":[

                            ],
                            "landscapeId":"f2luvsbfampwn1tuawma",
                            "altText":"Women's Air Max 90 / 1 'White & University Red' Release Date",
                            "portraitURL":"https://c.static-nike.com/a/images/w_1536,c_limit/j8ol13ejumdvpdooahzr/womens-air-max-90-1-white-university-red-release-date.jpg",
                            "landscapeURL":"https://c.static-nike.com/a/images/w_1920,c_limit/f2luvsbfampwn1tuawma/womens-air-max-90-1-white-university-red-release-date.jpg",
                            "portrait":{
                                "aspectRatio":0.66667,
                                "id":"j8ol13ejumdvpdooahzr",
                                "type":"editorial",
                                "url":"https://c.static-nike.com/a/images/w_1536,c_limit/j8ol13ejumdvpdooahzr/womens-air-max-90-1-white-university-red-release-date.jpg"
                            },
                            "squarish":{
                                "id":"",
                                "url":""
                            },
                            "title":"",
                            "squarishId":"",
                            "subtitle":"",
                            "colorTheme":"dark",
                            "actions":[

                            ],
                            "landscape":{
                                "aspectRatio":1.88235,
                                "id":"f2luvsbfampwn1tuawma",
                                "type":"editorial",
                                "url":"https://c.static-nike.com/a/images/w_1920,c_limit/f2luvsbfampwn1tuawma/womens-air-max-90-1-white-university-red-release-date.jpg"
                            }
                        }
                    },
                    {
                        "subType":"text",
                        "id":"71e6c824-8a8b-4a66-864a-bbd3a849db8f",
                        "type":"card",
                        "version":"1532942574659",
                        "properties":{
                            "product":[

                            ],
                            "subtitle":"",
                            "body":"<p>1987 年，Air Max 系列诞生，可视 Air 气垫惊艳亮相。最初只是缓震系统的实验作品，不久之后便以雷霆之势席卷跑道和街头。多年来，设计不断突破革新，但悠久的历史传承却历久弥坚。 </p>",
                            "title":"经典传承",
                            "actions":[

                            ]
                        }
                    },
                    {
                        "subType":"image",
                        "id":"815404ed-2145-43d3-a811-f32193c0ba97",
                        "type":"card",
                        "version":"1533537511251",
                        "properties":{
                            "portraitId":"ymkgzqqavtl7ksrwe1du",
                            "squarishURL":"",
                            "product":[

                            ],
                            "landscapeId":"k787sddqpleuridcz20f",
                            "altText":"Women's Air Max 90 / 1 'White & University Red' Release Date",
                            "portraitURL":"https://c.static-nike.com/a/images/w_1536,c_limit/ymkgzqqavtl7ksrwe1du/womens-air-max-90-1-white-university-red-release-date.jpg",
                            "landscapeURL":"https://c.static-nike.com/a/images/w_1920,c_limit/k787sddqpleuridcz20f/womens-air-max-90-1-white-university-red-release-date.jpg",
                            "portrait":{
                                "aspectRatio":0.66667,
                                "id":"ymkgzqqavtl7ksrwe1du",
                                "type":"editorial",
                                "url":"https://c.static-nike.com/a/images/w_1536,c_limit/ymkgzqqavtl7ksrwe1du/womens-air-max-90-1-white-university-red-release-date.jpg"
                            },
                            "squarish":{
                                "id":"",
                                "url":""
                            },
                            "title":"",
                            "squarishId":"",
                            "subtitle":"",
                            "colorTheme":"dark",
                            "actions":[

                            ],
                            "landscape":{
                                "aspectRatio":1.88235,
                                "id":"k787sddqpleuridcz20f",
                                "type":"editorial",
                                "url":"https://c.static-nike.com/a/images/w_1920,c_limit/k787sddqpleuridcz20f/womens-air-max-90-1-white-university-red-release-date.jpg"
                            }
                        }
                    }
                ],
                "properties":{
                    "custom":{
                        "tags":[
                            "AIR MAX",
                            "WOMENS",
                            "WMNS",
                            "UNIVERSITY RED",
                            "WHITE",
                            "NEUTRAL GREY",
                            "SPORTSWEAR",
                            "AIR MAX 90 / 1"
                        ]
                    },
                    "publish":{
                        "collections":[
                            "d879aa85-698c-41a1-b066-a8ecdf6b8a9c"
                        ]
                    },
                    "threadType":"thread",
                    "relatedThreads":[
                        "14c003c0-5560-45ab-87cd-6eaea61e1266"
                    ],
                    "seo":{
                        "keywords":"",
                        "description":"浏览并选购女款 Air Max 90 / 1 'White & University Red'。抢先了解运动鞋发布新动态。",
                        "doNotIndex":false,
                        "title":"女款 Air Max 90 / 1 'White & University Red' 发布日期",
                        "slug":"womens-air-max-90-1-white-university-red"
                    },
                    "products":[
                        {
                            "productId":"7f22a5e4-61bb-5f70-bee2-87cc8b3862ff",
                            "styleColor":"AQ1273-100"
                        }
                    ],
                    "coverCard":{
                        "subType":"image",
                        "id":"ba0837ac-0d8f-483f-8186-fddc1c4a0c59",
                        "type":"card",
                        "version":"1532942574894",
                        "properties":{
                            "portraitId":"mt6afqnl6vrsxqahxf4j",
                            "squarishURL":"https://c.static-nike.com/a/images/t_prod_ss/w_960,c_limit/mt6afqnl6vrsxqahxf4j/heritage-hybrid.jpg",
                            "product":[

                            ],
                            "landscapeId":"mt6afqnl6vrsxqahxf4j",
                            "altText":"",
                            "portraitURL":"https://c.static-nike.com/a/images/t_prod_ps/w_1536,c_limit/mt6afqnl6vrsxqahxf4j/heritage-hybrid.jpg",
                            "landscapeURL":"https://c.static-nike.com/a/images/t_prod_ls/w_1920,c_limit/mt6afqnl6vrsxqahxf4j/heritage-hybrid.jpg",
                            "portrait":{
                                "view":"A",
                                "id":"mt6afqnl6vrsxqahxf4j",
                                "type":"product",
                                "url":"https://c.static-nike.com/a/images/t_prod_ps/w_1536,c_limit/mt6afqnl6vrsxqahxf4j/heritage-hybrid.jpg"
                            },
                            "squarish":{
                                "view":"A",
                                "id":"mt6afqnl6vrsxqahxf4j",
                                "type":"product",
                                "url":"https://c.static-nike.com/a/images/t_prod_ss/w_960,c_limit/mt6afqnl6vrsxqahxf4j/heritage-hybrid.jpg"
                            },
                            "title":"HERITAGE HYBRID",
                            "squarishId":"mt6afqnl6vrsxqahxf4j",
                            "subtitle":"女款 AIR MAX 90 / 1",
                            "colorTheme":"dark",
                            "actions":[

                            ],
                            "landscape":{
                                "view":"A",
                                "id":"mt6afqnl6vrsxqahxf4j",
                                "type":"product",
                                "url":"https://c.static-nike.com/a/images/t_prod_ls/w_1920,c_limit/mt6afqnl6vrsxqahxf4j/heritage-hybrid.jpg"
                            }
                        }
                    }
                }
            },
            "productInfo":[
                {
                    "merchProduct":{
                        "id":"7f22a5e4-61bb-5f70-bee2-87cc8b3862ff",
                        "snapshotId":"8ed6cdb4-15c0-4e2a-8e85-9ee09637ccd6",
                        "modificationDate":"2018-08-06T07:01:27.978Z",
                        "status":"ACTIVE",
                        "merchGroup":"CN",
                        "styleCode":"AQ1273",
                        "colorCode":"100",
                        "styleColor":"AQ1273-100",
                        "pid":"12247094",
                        "catalogId":"f0f310e9-f1c7-3382-a276-2f53d14acab3",
                        "productGroupId":"12395874",
                        "brand":"Nike",
                        "channels":[
                            "Nike.com"
                        ],
                        "consumerChannels":[
                            {
                                "id":"d9a5bc42-4b9c-4976-858a-f159cf99c647",
                                "resourceType":"globalization/consumer_channels"
                            }
                        ],
                        "legacyCatalogIds":[
                            "4"
                        ],
                        "genders":[
                            "WOMEN"
                        ],
                        "valueAddedServices":[
                            {
                                "id":"3d394d87-5273-55c8-a73d-72a1798fd18f",
                                "vasType":"GIFT_WRAP"
                            }
                        ],
                        "sportTags":[
                            "Lifestyle"
                        ],
                        "classificationConcepts":[

                        ],
                        "taxonomyAttributes":[
                            {
                                "resourceType":"merch/taxonomy_attributes",
                                "ids":[
                                    "7baf216c-acc6-4452-9e07-39c2ca77ba32",
                                    "9e5e6948-8820-4a24-a4d3-01cdb5dc8291",
                                    "05392778-fff6-4fa0-a375-2506d27f009e",
                                    "5ddfb803-2f11-4265-84b2-f7f450f0b697",
                                    "16633190-45e5-4830-a068-232ac7aea82c",
                                    "d3c9a610-cfd2-42bb-95d1-15fd6e2f8283",
                                    "abb0cf06-d7c2-41b7-97ba-c6d5ef5f43ed",
                                    "193af413-39b0-4d7e-ae34-558821381d3f",
                                    "6631b5c3-937a-4174-942e-3ab3c5b16642",
                                    "f91a18dd-470f-4d36-ada2-ec83f4dffcd8",
                                    "c79ea9e3-7247-45aa-b12b-96fb34c7b80e"
                                ]
                            }
                        ],
                        "commerceCountryInclusions":[

                        ],
                        "commerceCountryExclusions":[

                        ],
                        "abTestValues":[

                        ],
                        "productRollup":{
                            "type":"Standard",
                            "key":"1zMm9n"
                        },
                        "quantityLimit":10,
                        "styleType":"INLINE",
                        "productType":"FOOTWEAR",
                        "publishType":"FLOW",
                        "mainColor":true,
                        "exclusiveAccess":false,
                        "hardLaunch":true,
                        "hideFromCSR":true,
                        "commercePublishDate":"2018-08-01T16:00:00.000Z",
                        "commerceStartDate":"2018-08-02T01:00:00.000Z",
                        "resourceType":"merchProduct",
                        "links":{
                            "self":{
                                "ref":"/merch/products/v2/7f22a5e4-61bb-5f70-bee2-87cc8b3862ff"
                            }
                        }
                    },
                    "merchPrice":{
                        "id":"31aa0327-74eb-5869-af9a-c273fff5908a",
                        "snapshotId":"ea4c0f21-ba61-4d00-98f3-9b3c811716e5",
                        "productId":"7f22a5e4-61bb-5f70-bee2-87cc8b3862ff",
                        "parentId":"7f22a5e4-61bb-5f70-bee2-87cc8b3862ff",
                        "parentType":"merchProduct",
                        "modificationDate":"2018-08-01T09:31:55.526Z",
                        "country":"CN",
                        "msrp":999,
                        "fullPrice":999,
                        "currentPrice":999,
                        "currency":"CNY",
                        "discounted":false,
                        "promoInclusions":[

                        ],
                        "promoExclusions":[
                            "TRUE"
                        ],
                        "resourceType":"merchPrice",
                        "links":{
                            "self":{
                                "ref":"/merch/prices/v2/31aa0327-74eb-5869-af9a-c273fff5908a"
                            }
                        }
                    },
                    "availability":{
                        "id":"7f22a5e4-61bb-5f70-bee2-87cc8b3862ff",
                        "productId":"7f22a5e4-61bb-5f70-bee2-87cc8b3862ff",
                        "resourceType":"availableProducts",
                        "links":{
                            "self":{
                                "ref":"/deliver/available_products/v1/7f22a5e4-61bb-5f70-bee2-87cc8b3862ff"
                            }
                        },
                        "available":false
                    },
                    "productContent":{
                        "globalPid":"12247094",
                        "langLocale":"zh_CN",
                        "colorDescription":"白色/浅灰/黑/大学红",
                        "slug":"air-max-90-1-女子运动鞋-1zMm9n",
                        "fullTitle":"Nike Air Max 90/1 女子运动鞋",
                        "title":"Nike Air Max 90/1",
                        "subtitle":"女子运动鞋",
                        "descriptionHeading":"两大经典，强强联手",
                        "description":"<div class="pi-tier3"><div class="pi-pdpmainbody"><p><b>两大经典，强强联手</b></p><br><p>Nike Air Max 90/1 女子运动鞋将 Air Max 90 的缓震配置和 Air Max 1 的经典鞋面相融合。</p>
</p><br><p><b>其他细节</b></p><ul>
<li>皮革鞋面，经久耐穿，外观出众</li>
<li>泡棉中底搭配 Max Air 气垫，有效缓震</li>
<li>全掌型橡胶外底造就非凡抓地力</li>
</ul>
<p><b>Air Max 90 起源</b></p><p>1978 年，革命性的 Nike Air 气垫开始在 Nike 的鞋类产品中崭露头角。1987 年，Nike Air Max 1 以透明气垫的方式出现在后跟部位，让这款球鞋的爱好者能切身感受到 Air 的舒适感，并一睹其真容。三年后，Nike Air Max 90 在前代款型的基础上打磨并改进，融入加大 Air 可视窗口设计，让人们可以更为直观地了解这一鞋款。该鞋款一经发售便凭借其醒目的亮红色配色组合迅速走红，成为 Nike 的一款经典潮鞋。</p>
</p><br><p>敬请注意，同款但不同配色的商品有可能在材质等方面有些许差异，本页面中的商品介绍内容仅供参考，商品具体信息请以实物为准。如商品介绍内容中包含 Nike Flyknit 或气垫相关信息，请点击<a href="https://help-zh-cn.nike.com/app/answer/article/product-attentions/country/cn">此链接</a>，获取产品技术说明和穿着注意事项。</p>
</p><br></div></div>",
                        "pdpGeneral":"<div><h2>特别版产品销售规则</h2>1.此商品每人限购1件，且不适用于任何优惠券/礼品卡等折扣活动。<br />
2.此商品仅支持网上在线支付，且需在商品订单提交后10分钟内成功付款。超时订单将被取消。成功付款以本网站确认付款信息为准，您可以通过查询订单状态实时了解是否已成功付款。<br />
3.网上在线成功支付需要多方协同，例如您的付款银行、支付及交易平台以及网络接入服务提供商等。自您进行支付后，各方系统需要一定时间进行数据交换直至本网站确认付款成功。<br />
4.在此期间，一旦发生网络传输延迟或数据交换堵塞可能会影响您成功付款，因此建议您在订单提交后尽快进行付款，以避免因网络延迟未能成功付款而导致订单取消的情形出现。<br />
5.耐克在某些情况下有权单方取消您的订单，如您已进行付款，耐克只需通过原付款平台向您退回您已支付款项，且无需承担其他责任。这些情况具体请见<strong><a href="http://help-zh-cn.nike.com/app/answers/detail/article/cancel_qs">特别版产品订单取消规则</a></strong>。<br />
6.由于不可抗力、传输迟延、耐克网站系统发生故障或遭受第三方攻击及其他耐克无法控制的情形，耐克有权暂时下架或延迟发售此商品。如您已下单购买此商品但因上述原因发生缺货的，您有权取消订单，商城亦有权取消订单，并仅需为您办理退款。<br />
7.特别版产品实行“先购先得”原则，如购买人数众多，您最终有可能因该产品迅速售罄而无法买到该产品。<br />
- 此商品为耐克推出的特别版产品，在您购买此商品前，敬请仔细阅读本网站<strong><a href="http://help-zh-cn.nike.com/app/answers/detail/article/terms/a_id/36483/p/3897">使用条款</a></strong>及上述特别版产品销售规则，如您选择继续通过本网站购买此商品，代表您已同意并接受前述规则</div>",
                        "techSpec":"",
                        "sizeChart":"womens-shoe-sizing-chart",
                        "colors":[
                            {
                                "type":"SIMPLE",
                                "name":"白色",
                                "hex":"FFFFFF"
                            },
                            {
                                "type":"PRIMARY",
                                "name":"白色",
                                "hex":"FFFFFF"
                            },
                            {
                                "type":"SECONDARY",
                                "name":"浅灰",
                                "hex":"BFC1C3"
                            },
                            {
                                "type":"TERTIARY",
                                "name":"黑",
                                "hex":"13161A"
                            },
                            {
                                "type":"LOGO",
                                "name":"大学红",
                                "hex":"982433"
                            }
                        ],
                        "bestFor":[

                        ],
                        "athletes":[

                        ],
                        "widths":[
                            {
                                "value":"REGULAR",
                                "localizedValue":"常规"
                            }
                        ]
                    },
                    "imageUrls":{
                        "productImageUrl":"https://secure-images.nike.com/is/image/DotCom/AQ1273_100"
                    },
                    "skus":[
                        {
                            "id":"21113d89-c57d-5a90-a7a4-7db7a5e0c9e1",
                            "snapshotId":"08efeb19-7adb-49f4-bc02-2045157651b3",
                            "productId":"7f22a5e4-61bb-5f70-bee2-87cc8b3862ff",
                            "parentId":"7f22a5e4-61bb-5f70-bee2-87cc8b3862ff",
                            "parentType":"merchProduct",
                            "catalogSkuId":"ee57242f-bbee-3d1a-94fe-67ff2af1dbe0",
                            "modificationDate":"2018-03-08T19:20:35.503Z",
                            "merchGroup":"CN",
                            "stockKeepingUnitId":"21558273",
                            "gtin":"00887231083251",
                            "nikeSize":"5",
                            "countrySpecifications":[
                                {
                                    "country":"CN",
                                    "localizedSize":"35.5",
                                    "taxInfo":{
                                        "vat":17
                                    }
                                }
                            ],
                            "resourceType":"merchSku",
                            "links":{
                                "self":{
                                    "ref":"/merch/skus/v2/21113d89-c57d-5a90-a7a4-7db7a5e0c9e1?country=CN"
                                }
                            }
                        },
                        {
                            "id":"cf1529bf-8cc2-5a65-9e9d-638d4fdcc876",
                            "snapshotId":"1d3f8f6d-b8bc-478d-9c8b-367ee3b9f309",
                            "productId":"7f22a5e4-61bb-5f70-bee2-87cc8b3862ff",
                            "parentId":"7f22a5e4-61bb-5f70-bee2-87cc8b3862ff",
                            "parentType":"merchProduct",
                            "catalogSkuId":"a3cd8d96-24c3-324b-8c2b-659553dd47b7",
                            "modificationDate":"2018-03-08T19:20:35.503Z",
                            "merchGroup":"CN",
                            "stockKeepingUnitId":"21558278",
                            "gtin":"00887231083312",
                            "nikeSize":"5.5",
                            "countrySpecifications":[
                                {
                                    "country":"CN",
                                    "localizedSize":"36",
                                    "taxInfo":{
                                        "vat":17
                                    }
                                }
                            ],
                            "resourceType":"merchSku",
                            "links":{
                                "self":{
                                    "ref":"/merch/skus/v2/cf1529bf-8cc2-5a65-9e9d-638d4fdcc876?country=CN"
                                }
                            }
                        },
                        {
                            "id":"4e492d16-7e10-5fba-b1b3-865abaf645b5",
                            "snapshotId":"840b5c36-8172-4f66-8eb3-a58f4b1d4d94",
                            "productId":"7f22a5e4-61bb-5f70-bee2-87cc8b3862ff",
                            "parentId":"7f22a5e4-61bb-5f70-bee2-87cc8b3862ff",
                            "parentType":"merchProduct",
                            "catalogSkuId":"12fd8e17-211d-380b-bf57-c3c78eea51a6",
                            "modificationDate":"2018-03-08T19:20:35.503Z",
                            "merchGroup":"CN",
                            "stockKeepingUnitId":"21558272",
                            "gtin":"00887231083329",
                            "nikeSize":"6",
                            "countrySpecifications":[
                                {
                                    "country":"CN",
                                    "localizedSize":"36.5",
                                    "taxInfo":{
                                        "vat":17
                                    }
                                }
                            ],
                            "resourceType":"merchSku",
                            "links":{
                                "self":{
                                    "ref":"/merch/skus/v2/4e492d16-7e10-5fba-b1b3-865abaf645b5?country=CN"
                                }
                            }
                        },
                        {
                            "id":"ec17a8fa-4d2a-5450-912c-ebbf3b4edc06",
                            "snapshotId":"361af74d-9de1-44c4-8b2c-1c4fcdac1051",
                            "productId":"7f22a5e4-61bb-5f70-bee2-87cc8b3862ff",
                            "parentId":"7f22a5e4-61bb-5f70-bee2-87cc8b3862ff",
                            "parentType":"merchProduct",
                            "catalogSkuId":"42cc6a38-733f-3e20-9e95-fa6e78e5f7b5",
                            "modificationDate":"2018-03-08T19:20:35.503Z",
                            "merchGroup":"CN",
                            "stockKeepingUnitId":"21558268",
                            "gtin":"00887231083343",
                            "nikeSize":"6.5",
                            "countrySpecifications":[
                                {
                                    "country":"CN",
                                    "localizedSize":"37.5",
                                    "taxInfo":{
                                        "vat":17
                                    }
                                }
                            ],
                            "resourceType":"merchSku",
                            "links":{
                                "self":{
                                    "ref":"/merch/skus/v2/ec17a8fa-4d2a-5450-912c-ebbf3b4edc06?country=CN"
                                }
                            }
                        },
                        {
                            "id":"bcd16bc6-8ad5-5b56-92eb-f27d184a2121",
                            "snapshotId":"7ee56153-97b2-4f45-90bb-fb512e1fd117",
                            "productId":"7f22a5e4-61bb-5f70-bee2-87cc8b3862ff",
                            "parentId":"7f22a5e4-61bb-5f70-bee2-87cc8b3862ff",
                            "parentType":"merchProduct",
                            "catalogSkuId":"abaf2671-3774-3f0d-91a1-8a17e73e5b2f",
                            "modificationDate":"2018-03-08T19:20:35.503Z",
                            "merchGroup":"CN",
                            "stockKeepingUnitId":"21558275",
                            "gtin":"00887231083350",
                            "nikeSize":"7",
                            "countrySpecifications":[
                                {
                                    "country":"CN",
                                    "localizedSize":"38",
                                    "taxInfo":{
                                        "vat":17
                                    }
                                }
                            ],
                            "resourceType":"merchSku",
                            "links":{
                                "self":{
                                    "ref":"/merch/skus/v2/bcd16bc6-8ad5-5b56-92eb-f27d184a2121?country=CN"
                                }
                            }
                        },
                        {
                            "id":"2494b149-7bf3-50c2-b2c9-25e0cdd02b27",
                            "snapshotId":"ac1edb51-27d9-4f6c-9882-af1aadbdc84d",
                            "productId":"7f22a5e4-61bb-5f70-bee2-87cc8b3862ff",
                            "parentId":"7f22a5e4-61bb-5f70-bee2-87cc8b3862ff",
                            "parentType":"merchProduct",
                            "catalogSkuId":"306d25b8-ee1b-3162-8d7e-f2441a4aca4e",
                            "modificationDate":"2018-03-08T19:20:35.503Z",
                            "merchGroup":"CN",
                            "stockKeepingUnitId":"21558267",
                            "gtin":"00887231084258",
                            "nikeSize":"7.5",
                            "countrySpecifications":[
                                {
                                    "country":"CN",
                                    "localizedSize":"38.5",
                                    "taxInfo":{
                                        "vat":17
                                    }
                                }
                            ],
                            "resourceType":"merchSku",
                            "links":{
                                "self":{
                                    "ref":"/merch/skus/v2/2494b149-7bf3-50c2-b2c9-25e0cdd02b27?country=CN"
                                }
                            }
                        },
                        {
                            "id":"584e79d7-e9a0-5911-b1a9-9f3dae91cd04",
                            "snapshotId":"3c06f9d2-4df9-4979-957c-a53210f3743e",
                            "productId":"7f22a5e4-61bb-5f70-bee2-87cc8b3862ff",
                            "parentId":"7f22a5e4-61bb-5f70-bee2-87cc8b3862ff",
                            "parentType":"merchProduct",
                            "catalogSkuId":"5552e1c2-1bda-3784-8245-82dc335ec37b",
                            "modificationDate":"2018-03-08T19:20:35.503Z",
                            "merchGroup":"CN",
                            "stockKeepingUnitId":"21558274",
                            "gtin":"00887231086443",
                            "nikeSize":"8",
                            "countrySpecifications":[
                                {
                                    "country":"CN",
                                    "localizedSize":"39",
                                    "taxInfo":{
                                        "vat":17
                                    }
                                }
                            ],
                            "resourceType":"merchSku",
                            "links":{
                                "self":{
                                    "ref":"/merch/skus/v2/584e79d7-e9a0-5911-b1a9-9f3dae91cd04?country=CN"
                                }
                            }
                        },
                        {
                            "id":"4926ca61-12f8-5c8f-bfbf-c9031d9af1a7",
                            "snapshotId":"6f99e36e-92a8-4e79-8e1f-832a55b7ea17",
                            "productId":"7f22a5e4-61bb-5f70-bee2-87cc8b3862ff",
                            "parentId":"7f22a5e4-61bb-5f70-bee2-87cc8b3862ff",
                            "parentType":"merchProduct",
                            "catalogSkuId":"1f119116-d617-3d81-84d6-6e7560f679c7",
                            "modificationDate":"2018-03-08T19:20:35.503Z",
                            "merchGroup":"CN",
                            "stockKeepingUnitId":"21558271",
                            "gtin":"00887231086450",
                            "nikeSize":"8.5",
                            "countrySpecifications":[
                                {
                                    "country":"CN",
                                    "localizedSize":"40",
                                    "taxInfo":{
                                        "vat":17
                                    }
                                }
                            ],
                            "resourceType":"merchSku",
                            "links":{
                                "self":{
                                    "ref":"/merch/skus/v2/4926ca61-12f8-5c8f-bfbf-c9031d9af1a7?country=CN"
                                }
                            }
                        },
                        {
                            "id":"f779dafe-c187-5231-912c-6f527bd685f0",
                            "snapshotId":"ced40501-3f52-4950-8eeb-50f5e18cdfdb",
                            "productId":"7f22a5e4-61bb-5f70-bee2-87cc8b3862ff",
                            "parentId":"7f22a5e4-61bb-5f70-bee2-87cc8b3862ff",
                            "parentType":"merchProduct",
                            "catalogSkuId":"d6aa0512-adf5-3d4b-92ac-47422d7cedd1",
                            "modificationDate":"2018-03-08T19:20:35.503Z",
                            "merchGroup":"CN",
                            "stockKeepingUnitId":"21558266",
                            "gtin":"00887231086467",
                            "nikeSize":"9",
                            "countrySpecifications":[
                                {
                                    "country":"CN",
                                    "localizedSize":"40.5",
                                    "taxInfo":{
                                        "vat":17
                                    }
                                }
                            ],
                            "resourceType":"merchSku",
                            "links":{
                                "self":{
                                    "ref":"/merch/skus/v2/f779dafe-c187-5231-912c-6f527bd685f0?country=CN"
                                }
                            }
                        },
                        {
                            "id":"865c9928-4137-5cd6-a3cd-21555815529f",
                            "snapshotId":"10a1d97e-1ed1-4c43-a00b-fad95a0a4989",
                            "productId":"7f22a5e4-61bb-5f70-bee2-87cc8b3862ff",
                            "parentId":"7f22a5e4-61bb-5f70-bee2-87cc8b3862ff",
                            "parentType":"merchProduct",
                            "catalogSkuId":"285ba903-0ae6-3efb-87d9-473494b10006",
                            "modificationDate":"2018-03-08T19:20:35.503Z",
                            "merchGroup":"CN",
                            "stockKeepingUnitId":"21558270",
                            "gtin":"00887231086474",
                            "nikeSize":"9.5",
                            "countrySpecifications":[
                                {
                                    "country":"CN",
                                    "localizedSize":"41",
                                    "taxInfo":{
                                        "vat":17
                                    }
                                }
                            ],
                            "resourceType":"merchSku",
                            "links":{
                                "self":{
                                    "ref":"/merch/skus/v2/865c9928-4137-5cd6-a3cd-21555815529f?country=CN"
                                }
                            }
                        },
                        {
                            "id":"9cb1980d-e879-5fe5-94e3-68cb535d6a63",
                            "snapshotId":"6e2db15f-c594-49e8-b818-1a63cc437f51",
                            "productId":"7f22a5e4-61bb-5f70-bee2-87cc8b3862ff",
                            "parentId":"7f22a5e4-61bb-5f70-bee2-87cc8b3862ff",
                            "parentType":"merchProduct",
                            "catalogSkuId":"663a425f-c432-3c33-942e-18245005d25b",
                            "modificationDate":"2018-03-08T19:20:35.503Z",
                            "merchGroup":"CN",
                            "stockKeepingUnitId":"21558280",
                            "gtin":"00887231086481",
                            "nikeSize":"10",
                            "countrySpecifications":[
                                {
                                    "country":"CN",
                                    "localizedSize":"42",
                                    "taxInfo":{
                                        "vat":17
                                    }
                                }
                            ],
                            "resourceType":"merchSku",
                            "links":{
                                "self":{
                                    "ref":"/merch/skus/v2/9cb1980d-e879-5fe5-94e3-68cb535d6a63?country=CN"
                                }
                            }
                        }
                    ],
                    "availableSkus":[
                        {
                            "id":"21113d89-c57d-5a90-a7a4-7db7a5e0c9e1",
                            "productId":"7f22a5e4-61bb-5f70-bee2-87cc8b3862ff",
                            "resourceType":"availableSkus",
                            "links":{
                                "self":{
                                    "ref":"/deliver/available_skus/v1/21113d89-c57d-5a90-a7a4-7db7a5e0c9e1"
                                }
                            },
                            "available":false,
                            "level":"OOS",
                            "skuId":"21113d89-c57d-5a90-a7a4-7db7a5e0c9e1"
                        },
                        {
                            "id":"cf1529bf-8cc2-5a65-9e9d-638d4fdcc876",
                            "productId":"7f22a5e4-61bb-5f70-bee2-87cc8b3862ff",
                            "resourceType":"availableSkus",
                            "links":{
                                "self":{
                                    "ref":"/deliver/available_skus/v1/cf1529bf-8cc2-5a65-9e9d-638d4fdcc876"
                                }
                            },
                            "available":false,
                            "level":"OOS",
                            "skuId":"cf1529bf-8cc2-5a65-9e9d-638d4fdcc876"
                        },
                        {
                            "id":"4e492d16-7e10-5fba-b1b3-865abaf645b5",
                            "productId":"7f22a5e4-61bb-5f70-bee2-87cc8b3862ff",
                            "resourceType":"availableSkus",
                            "links":{
                                "self":{
                                    "ref":"/deliver/available_skus/v1/4e492d16-7e10-5fba-b1b3-865abaf645b5"
                                }
                            },
                            "available":false,
                            "level":"OOS",
                            "skuId":"4e492d16-7e10-5fba-b1b3-865abaf645b5"
                        },
                        {
                            "id":"ec17a8fa-4d2a-5450-912c-ebbf3b4edc06",
                            "productId":"7f22a5e4-61bb-5f70-bee2-87cc8b3862ff",
                            "resourceType":"availableSkus",
                            "links":{
                                "self":{
                                    "ref":"/deliver/available_skus/v1/ec17a8fa-4d2a-5450-912c-ebbf3b4edc06"
                                }
                            },
                            "available":false,
                            "level":"OOS",
                            "skuId":"ec17a8fa-4d2a-5450-912c-ebbf3b4edc06"
                        },
                        {
                            "id":"bcd16bc6-8ad5-5b56-92eb-f27d184a2121",
                            "productId":"7f22a5e4-61bb-5f70-bee2-87cc8b3862ff",
                            "resourceType":"availableSkus",
                            "links":{
                                "self":{
                                    "ref":"/deliver/available_skus/v1/bcd16bc6-8ad5-5b56-92eb-f27d184a2121"
                                }
                            },
                            "available":false,
                            "level":"OOS",
                            "skuId":"bcd16bc6-8ad5-5b56-92eb-f27d184a2121"
                        },
                        {
                            "id":"2494b149-7bf3-50c2-b2c9-25e0cdd02b27",
                            "productId":"7f22a5e4-61bb-5f70-bee2-87cc8b3862ff",
                            "resourceType":"availableSkus",
                            "links":{
                                "self":{
                                    "ref":"/deliver/available_skus/v1/2494b149-7bf3-50c2-b2c9-25e0cdd02b27"
                                }
                            },
                            "available":false,
                            "level":"OOS",
                            "skuId":"2494b149-7bf3-50c2-b2c9-25e0cdd02b27"
                        },
                        {
                            "id":"584e79d7-e9a0-5911-b1a9-9f3dae91cd04",
                            "productId":"7f22a5e4-61bb-5f70-bee2-87cc8b3862ff",
                            "resourceType":"availableSkus",
                            "links":{
                                "self":{
                                    "ref":"/deliver/available_skus/v1/584e79d7-e9a0-5911-b1a9-9f3dae91cd04"
                                }
                            },
                            "available":false,
                            "level":"OOS",
                            "skuId":"584e79d7-e9a0-5911-b1a9-9f3dae91cd04"
                        },
                        {
                            "id":"4926ca61-12f8-5c8f-bfbf-c9031d9af1a7",
                            "productId":"7f22a5e4-61bb-5f70-bee2-87cc8b3862ff",
                            "resourceType":"availableSkus",
                            "links":{
                                "self":{
                                    "ref":"/deliver/available_skus/v1/4926ca61-12f8-5c8f-bfbf-c9031d9af1a7"
                                }
                            },
                            "available":false,
                            "level":"OOS",
                            "skuId":"4926ca61-12f8-5c8f-bfbf-c9031d9af1a7"
                        },
                        {
                            "id":"f779dafe-c187-5231-912c-6f527bd685f0",
                            "productId":"7f22a5e4-61bb-5f70-bee2-87cc8b3862ff",
                            "resourceType":"availableSkus",
                            "links":{
                                "self":{
                                    "ref":"/deliver/available_skus/v1/f779dafe-c187-5231-912c-6f527bd685f0"
                                }
                            },
                            "available":false,
                            "level":"OOS",
                            "skuId":"f779dafe-c187-5231-912c-6f527bd685f0"
                        },
                        {
                            "id":"865c9928-4137-5cd6-a3cd-21555815529f",
                            "productId":"7f22a5e4-61bb-5f70-bee2-87cc8b3862ff",
                            "resourceType":"availableSkus",
                            "links":{
                                "self":{
                                    "ref":"/deliver/available_skus/v1/865c9928-4137-5cd6-a3cd-21555815529f"
                                }
                            },
                            "available":false,
                            "level":"OOS",
                            "skuId":"865c9928-4137-5cd6-a3cd-21555815529f"
                        },
                        {
                            "id":"9cb1980d-e879-5fe5-94e3-68cb535d6a63",
                            "productId":"7f22a5e4-61bb-5f70-bee2-87cc8b3862ff",
                            "resourceType":"availableSkus",
                            "links":{
                                "self":{
                                    "ref":"/deliver/available_skus/v1/9cb1980d-e879-5fe5-94e3-68cb535d6a63"
                                }
                            },
                            "available":false,
                            "level":"OOS",
                            "skuId":"9cb1980d-e879-5fe5-94e3-68cb535d6a63"
                        }
                    ],
                    "socialInterest":{
                        "id":"488d5d70-49f4-447c-a03b-15fa49cdbfd2"
                    }
                }
            ]
        }
    ]
}